<?xml version="1.0" encoding="UTF-8" standalone="no"?>
<!-- Created with Inkscape (http://www.inkscape.org/) -->

<svg
   xmlns:dc="http://purl.org/dc/elements/1.1/"
   xmlns:cc="http://creativecommons.org/ns#"
   xmlns:rdf="http://www.w3.org/1999/02/22-rdf-syntax-ns#"
   xmlns:svg="http://www.w3.org/2000/svg"
   xmlns="http://www.w3.org/2000/svg"
   xmlns:sodipodi="http://sodipodi.sourceforge.net/DTD/sodipodi-0.dtd"
   xmlns:inkscape="http://www.inkscape.org/namespaces/inkscape"
   width="297mm"
   height="210mm"
   viewBox="0 0 297 210"
   version="1.1"
   id="svg10430"
   inkscape:version="0.92.4 (5da689c313, 2019-01-14)"
   sodipodi:docname="Capitulo6Ejemplo4.svg">
  <defs
     id="defs10424" />
  <sodipodi:namedview
     id="base"
     pagecolor="#ffffff"
     bordercolor="#666666"
     borderopacity="1.0"
     inkscape:pageopacity="0.0"
     inkscape:pageshadow="2"
     inkscape:zoom="0.98994949"
     inkscape:cx="635.84264"
     inkscape:cy="550.56808"
     inkscape:document-units="mm"
     inkscape:current-layer="layer9"
     showgrid="false"
     inkscape:snap-global="false"
     inkscape:window-width="1366"
     inkscape:window-height="705"
     inkscape:window-x="-8"
     inkscape:window-y="-8"
     inkscape:window-maximized="1" />
  <metadata
     id="metadata10427">
    <rdf:RDF>
      <cc:Work
         rdf:about="">
        <dc:format>image/svg+xml</dc:format>
        <dc:type
           rdf:resource="http://purl.org/dc/dcmitype/StillImage" />
        <dc:title></dc:title>
      </cc:Work>
    </rdf:RDF>
  </metadata>
  <g
     inkscape:groupmode="layer"
     id="layer9"
     inkscape:label="Capa 2"
     style="display:inline">
    <path
       inkscape:connector-curvature="0"
       id="path1325"
       d="M 89.585898,60.047249 208.68901,122.49355"
       style="display:inline;fill:none;stroke:#0c7cba;stroke-width:0.75779349;stroke-linecap:butt;stroke-linejoin:miter;stroke-miterlimit:4;stroke-dasharray:none;stroke-opacity:1" />
    <path
       sodipodi:nodetypes="csc"
       inkscape:connector-curvature="0"
       id="path1335"
       d="m 202.79883,139.42824 c 0,0 -8.87849,7.67758 -44.11229,18.94603 -30.52328,9.76193 -63.875678,-0.57124 -82.334081,-45.40051"
       style="display:inline;fill:none;stroke:#0c7cba;stroke-width:0.84038836;stroke-linecap:butt;stroke-linejoin:miter;stroke-miterlimit:4;stroke-dasharray:2.52116515, 2.52116515;stroke-dashoffset:0;stroke-opacity:1" />
    <g
       style="display:inline"
       id="g1368-14"
       transform="matrix(-1.3519755,-0.00796238,0.01164488,-2.7839966,223.63601,590.02143)">
      <path
         style="fill:none;stroke:#000000;stroke-width:0.565;stroke-linecap:butt;stroke-linejoin:miter;stroke-miterlimit:4;stroke-dasharray:none;stroke-opacity:1"
         d="m 100.09244,174.7242 0.26727,12.56166"
         id="path1329-81"
         inkscape:connector-curvature="0" />
      <text
         id="text1350-76"
         y="189.98271"
         x="98.743851"
         style="font-style:normal;font-variant:normal;font-weight:400;font-size:3.88606763px;line-height:125%;font-family:'Segoe UI Emoji';text-align:start;letter-spacing:0px;word-spacing:0px;text-anchor:start;fill:#000000;fill-opacity:1;stroke:none;stroke-width:0.26458332"
         xml:space="preserve"><tspan
           id="tspan1348-63"
           y="189.98271"
           x="98.743851"
           sodipodi:role="line"
           style="stroke-width:0.26458332"><tspan
             id="tspan1344-4"
             style="font-style:normal;font-variant:normal;font-weight:400;font-size:3.88606763px;font-family:'Segoe UI Emoji';fill:#000000;stroke-width:0.26458332"
             dy="0"
             dx="0">▼</tspan><tspan
             id="tspan1346-46"
             style="font-style:normal;font-variant:normal;font-weight:400;font-size:3.88606763px;font-family:Calibri;fill:#000000;stroke-width:0.26458332"
             dy="0"
             dx="0"> </tspan></tspan></text>
      <text
         id="text1350-76-0"
         y="101.03602"
         x="279.30817"
         style="font-style:normal;font-variant:normal;font-weight:400;font-size:3.25178647px;line-height:125%;font-family:'Segoe UI Emoji';text-align:start;letter-spacing:0px;word-spacing:0px;text-anchor:start;display:inline;fill:#0c7cba;fill-opacity:1;stroke:#0c7cba;stroke-width:0.22139822;stroke-opacity:1"
         xml:space="preserve"
         transform="matrix(0.65593393,0.38773359,-1.6767475,0.53339009,0,0)"
         inkscape:transform-center-x="1.6036172"
         inkscape:transform-center-y="-1.603622"><tspan
           id="tspan1348-63-1"
           y="101.03602"
           x="279.30817"
           sodipodi:role="line"
           style="fill:#0c7cba;fill-opacity:1;stroke:#0c7cba;stroke-width:0.22139822;stroke-opacity:1"><tspan
             id="tspan1344-4-89"
             style="font-style:normal;font-variant:normal;font-weight:400;font-size:3.25178647px;font-family:'Segoe UI Emoji';fill:#0c7cba;fill-opacity:1;stroke:#0c7cba;stroke-width:0.22139822;stroke-opacity:1"
             dy="0"
             dx="0">▼</tspan><tspan
             id="tspan1346-46-0"
             style="font-style:normal;font-variant:normal;font-weight:400;font-size:3.25178647px;font-family:Calibri;fill:#0c7cba;fill-opacity:1;stroke:#0c7cba;stroke-width:0.22139822;stroke-opacity:1"
             dy="0"
             dx="0"> </tspan></tspan></text>
    </g>
    <g
       style="display:inline"
       id="g1683"
       transform="matrix(0.98168507,0,0,1.3519922,-8.9604407,-131.99269)">
      <path
         style="fill:none;stroke:#000000;stroke-width:0.565;stroke-linecap:butt;stroke-linejoin:miter;stroke-miterlimit:4;stroke-dasharray:none;stroke-opacity:1"
         d="m 89.26802,174.32329 c 149.67093,0.26727 149.67093,0.26727 149.67093,0.26727"
         id="path514"
         inkscape:connector-curvature="0" />
      <text
         id="text1665"
         y="142.8988"
         x="296.71558"
         style="font-style:normal;font-variant:normal;font-weight:400;font-size:7.60175419px;line-height:125%;font-family:'Segoe UI Emoji';text-align:start;letter-spacing:0px;word-spacing:0px;text-anchor:start;fill:#000000;fill-opacity:1;stroke:none;stroke-width:0.51756626"
         xml:space="preserve"
         transform="scale(0.80391189,1.2439174)"><tspan
           id="tspan1663"
           y="142.8988"
           x="296.71558"
           sodipodi:role="line"
           style="stroke-width:0.51756626"><tspan
             id="tspan1659"
             style="font-style:normal;font-variant:normal;font-weight:400;font-size:7.60175419px;font-family:'Segoe UI Emoji';fill:#000000;stroke-width:0.51756626"
             dy="0"
             dx="0">►</tspan><tspan
             id="tspan1661"
             style="font-style:normal;font-variant:normal;font-weight:400;font-size:7.60175419px;font-family:Calibri;fill:#000000;stroke-width:0.51756626"
             dy="0"
             dx="0"> </tspan></tspan></text>
    </g>
    <text
       transform="scale(0.96962495,1.0313266)"
       id="text1787"
       y="106.31983"
       x="74.780098"
       style="font-style:normal;font-weight:normal;font-size:6.2354331px;line-height:1.25;font-family:sans-serif;letter-spacing:0px;word-spacing:0px;display:inline;fill:#000000;fill-opacity:1;stroke:none;stroke-width:0.15588582"
       xml:space="preserve"><tspan
         style="stroke-width:0.15588582"
         y="106.31983"
         x="74.780098"
         id="tspan1785"
         sodipodi:role="line">0</tspan></text>
    <text
       transform="scale(0.96962495,1.0313266)"
       id="text1787-5"
       y="107.06066"
       x="89.817398"
       style="font-style:normal;font-weight:normal;font-size:6.2354331px;line-height:1.25;font-family:sans-serif;letter-spacing:0px;word-spacing:0px;display:inline;fill:#000000;fill-opacity:1;stroke:none;stroke-width:0.15588582"
       xml:space="preserve"><tspan
         id="tspan1879"
         style="stroke-width:0.15588582"
         y="107.06066"
         x="89.817398"
         sodipodi:role="line">1</tspan></text>
    <text
       transform="scale(0.96962495,1.0313266)"
       id="text1787-3"
       y="107.64841"
       x="104.73058"
       style="font-style:normal;font-weight:normal;font-size:6.2354331px;line-height:1.25;font-family:sans-serif;letter-spacing:0px;word-spacing:0px;display:inline;fill:#000000;fill-opacity:1;stroke:none;stroke-width:0.15588582"
       xml:space="preserve"><tspan
         style="stroke-width:0.15588582"
         y="107.64841"
         x="104.73058"
         id="tspan1785-2"
         sodipodi:role="line">2</tspan></text>
    <text
       transform="scale(0.96962495,1.0313266)"
       id="text1787-1"
       y="107.99152"
       x="121.2745"
       style="font-style:normal;font-weight:normal;font-size:6.2354331px;line-height:1.25;font-family:sans-serif;letter-spacing:0px;word-spacing:0px;display:inline;fill:#000000;fill-opacity:1;stroke:none;stroke-width:0.15588582"
       xml:space="preserve"><tspan
         style="stroke-width:0.15588582"
         y="107.99152"
         x="121.2745"
         id="tspan1785-7"
         sodipodi:role="line">3</tspan></text>
    <text
       transform="scale(0.96962495,1.0313266)"
       id="text1787-34"
       y="107.06789"
       x="140.90886"
       style="font-style:normal;font-weight:normal;font-size:6.2354331px;line-height:1.25;font-family:sans-serif;letter-spacing:0px;word-spacing:0px;display:inline;fill:#000000;fill-opacity:1;stroke:none;stroke-width:0.15588582"
       xml:space="preserve"><tspan
         style="stroke-width:0.15588582"
         y="107.06789"
         x="140.90886"
         id="tspan1785-74"
         sodipodi:role="line">4</tspan></text>
    <text
       transform="scale(0.96962495,1.0313266)"
       id="text1787-14"
       y="108.232"
       x="159.44722"
       style="font-style:normal;font-weight:normal;font-size:6.2354331px;line-height:1.25;font-family:sans-serif;letter-spacing:0px;word-spacing:0px;display:inline;fill:#000000;fill-opacity:1;stroke:none;stroke-width:0.15588582"
       xml:space="preserve"><tspan
         style="stroke-width:0.15588582"
         y="108.232"
         x="159.44722"
         id="tspan1785-3"
         sodipodi:role="line">5</tspan></text>
    <text
       transform="scale(0.96962495,1.0313266)"
       id="text1787-2"
       y="108.53158"
       x="222.03761"
       style="font-style:normal;font-weight:normal;font-size:6.2354331px;line-height:1.25;font-family:sans-serif;letter-spacing:0px;word-spacing:0px;display:inline;fill:#000000;fill-opacity:1;stroke:none;stroke-width:0.15588582"
       xml:space="preserve"><tspan
         style="stroke-width:0.15588582"
         y="108.53158"
         x="222.03761"
         id="tspan1785-4"
         sodipodi:role="line">8 pav</tspan></text>
    <g
       style="display:inline"
       id="g1368-14-4"
       transform="matrix(-1.3519755,-0.00638246,0.01164488,-2.2315881,238.28622,493.10864)">
      <path
         style="fill:none;stroke:#000000;stroke-width:0.565;stroke-linecap:butt;stroke-linejoin:miter;stroke-miterlimit:4;stroke-dasharray:none;stroke-opacity:1"
         d="m 100.09244,174.7242 0.26727,12.56166"
         id="path1329-81-2"
         inkscape:connector-curvature="0" />
      <text
         id="text1350-76-5"
         y="189.98271"
         x="98.743851"
         style="font-style:normal;font-variant:normal;font-weight:400;font-size:3.88606763px;line-height:125%;font-family:'Segoe UI Emoji';text-align:start;letter-spacing:0px;word-spacing:0px;text-anchor:start;fill:#000000;fill-opacity:1;stroke:none;stroke-width:0.26458332"
         xml:space="preserve"><tspan
           id="tspan1348-63-4"
           y="189.98271"
           x="98.743851"
           sodipodi:role="line"
           style="stroke-width:0.26458332"><tspan
             id="tspan1344-4-8"
             style="font-style:normal;font-variant:normal;font-weight:400;font-size:3.88606763px;font-family:'Segoe UI Emoji';fill:#000000;stroke-width:0.26458332"
             dy="0"
             dx="0">▼</tspan><tspan
             id="tspan1346-46-8"
             style="font-style:normal;font-variant:normal;font-weight:400;font-size:3.88606763px;font-family:Calibri;fill:#000000;stroke-width:0.26458332"
             dy="0"
             dx="0"> </tspan></tspan></text>
    </g>
    <g
       style="display:inline"
       id="g1368-14-3"
       transform="matrix(1.3518286,0.01807417,-0.02900218,1.2844713,78.936052,-123.25361)">
      <path
         style="fill:none;stroke:#000000;stroke-width:0.565;stroke-linecap:butt;stroke-linejoin:miter;stroke-miterlimit:4;stroke-dasharray:none;stroke-opacity:1"
         d="m 100.09244,174.7242 0.26727,12.56166"
         id="path1329-81-4"
         inkscape:connector-curvature="0" />
      <text
         id="text1350-76-4"
         y="189.98271"
         x="98.743851"
         style="font-style:normal;font-variant:normal;font-weight:400;font-size:3.88606763px;line-height:125%;font-family:'Segoe UI Emoji';text-align:start;letter-spacing:0px;word-spacing:0px;text-anchor:start;fill:#000000;fill-opacity:1;stroke:none;stroke-width:0.26458332"
         xml:space="preserve"><tspan
           id="tspan1348-63-6"
           y="189.98271"
           x="98.743851"
           sodipodi:role="line"
           style="stroke-width:0.26458332"><tspan
             id="tspan1344-4-1"
             style="font-style:normal;font-variant:normal;font-weight:400;font-size:3.88606763px;font-family:'Segoe UI Emoji';fill:#000000;stroke-width:0.26458332"
             dy="0"
             dx="0">▼</tspan><tspan
             id="tspan1346-46-6"
             style="font-style:normal;font-variant:normal;font-weight:400;font-size:3.88606763px;font-family:Calibri;fill:#000000;stroke-width:0.26458332"
             dy="0"
             dx="0"> </tspan></tspan></text>
    </g>
    <g
       style="display:inline"
       id="g1368-14-17"
       transform="matrix(-1.3519755,-0.00350256,0.01164488,-1.2246514,271.43057,318.8544)">
      <path
         style="fill:none;stroke:#000000;stroke-width:0.565;stroke-linecap:butt;stroke-linejoin:miter;stroke-miterlimit:4;stroke-dasharray:none;stroke-opacity:1"
         d="m 100.09244,174.7242 0.26727,12.56166"
         id="path1329-81-65"
         inkscape:connector-curvature="0" />
      <text
         id="text1350-76-98"
         y="189.98271"
         x="98.743851"
         style="font-style:normal;font-variant:normal;font-weight:400;font-size:3.88606763px;line-height:125%;font-family:'Segoe UI Emoji';text-align:start;letter-spacing:0px;word-spacing:0px;text-anchor:start;fill:#000000;fill-opacity:1;stroke:none;stroke-width:0.26458332"
         xml:space="preserve"><tspan
           id="tspan1348-63-0"
           y="189.98271"
           x="98.743851"
           sodipodi:role="line"
           style="stroke-width:0.26458332"><tspan
             id="tspan1344-4-9"
             style="font-style:normal;font-variant:normal;font-weight:400;font-size:3.88606763px;font-family:'Segoe UI Emoji';fill:#000000;stroke-width:0.26458332"
             dy="0"
             dx="0">▼</tspan><tspan
             id="tspan1346-46-7"
             style="font-style:normal;font-variant:normal;font-weight:400;font-size:3.88606763px;font-family:Calibri;fill:#000000;stroke-width:0.26458332"
             dy="0"
             dx="0"> </tspan></tspan></text>
    </g>
    <text
       id="text4166"
       y="129.44102"
       x="125.93302"
       style="font-style:normal;font-variant:normal;font-weight:400;font-size:8.58514977px;line-height:125%;font-family:'Cambria Math';text-align:start;letter-spacing:0px;word-spacing:0px;text-anchor:start;display:inline;fill:#000000;fill-opacity:1;stroke:none;stroke-width:0.35771456"
       xml:space="preserve"><tspan
         id="tspan4164"
         y="129.44102"
         x="125.93302"
         sodipodi:role="line"
         style="font-size:8.58514977px;stroke-width:0.35771456">L=- $100</tspan></text>
    <text
       id="text4201"
       y="148.48761"
       x="125.85387"
       style="font-style:normal;font-variant:normal;font-weight:400;font-size:5.25393295px;line-height:125%;font-family:'Cambria Math';text-align:start;letter-spacing:0px;word-spacing:0px;text-anchor:start;display:inline;fill:#000000;fill-opacity:1;stroke:none;stroke-width:0.35771456"
       xml:space="preserve"><tspan
         id="tspan4199"
         y="148.48761"
         x="125.85387"
         sodipodi:role="line"
         style="font-size:8.58514977px;stroke-width:0.35771456">n=8 pav</tspan></text>
    <text
       id="text4479"
       y="62.522526"
       x="95.417076"
       style="font-style:normal;font-variant:normal;font-weight:400;font-size:6.68479252px;line-height:125%;font-family:'Cambria Math';text-align:start;letter-spacing:0px;word-spacing:0px;text-anchor:start;display:inline;fill:#000000;fill-opacity:1;stroke:none;stroke-width:0.35771456"
       xml:space="preserve"><tspan
         id="tspan4477"
         y="62.522526"
         x="95.417076"
         sodipodi:role="line"
         style="stroke-width:0.35771456"><tspan
           id="tspan4467"
           style="font-style:normal;font-variant:normal;font-weight:400;font-size:6.68479252px;font-family:'Cambria Math';fill:#000000;stroke-width:0.35771456"
           dy="0"
           dx="3.1654525">$400</tspan><tspan
           id="tspan4475"
           style="font-style:normal;font-variant:normal;font-weight:400;font-size:6.68479252px;font-family:Arial;fill:#000000;stroke-width:0.35771456"
           dy="0"
           dx="0"> </tspan></tspan></text>
    <text
       id="text4510"
       y="70.859802"
       x="112.17365"
       style="font-style:normal;font-variant:normal;font-weight:400;font-size:6.68479252px;line-height:125%;font-family:'Cambria Math';text-align:start;letter-spacing:0px;word-spacing:0px;text-anchor:start;display:inline;fill:#000000;fill-opacity:1;stroke:none;stroke-width:0.35771456"
       xml:space="preserve"><tspan
         id="tspan4508"
         y="70.859802"
         x="112.17365"
         sodipodi:role="line"
         style="stroke-width:0.35771456"><tspan
           id="tspan4498"
           style="font-style:normal;font-variant:normal;font-weight:400;font-size:6.68479252px;font-family:'Cambria Math';fill:#000000;stroke-width:0.35771456"
           dy="0"
           dx="3.1654525">$300</tspan><tspan
           id="tspan4506"
           style="font-style:normal;font-variant:normal;font-weight:400;font-size:6.68479252px;font-family:Arial;fill:#000000;stroke-width:0.35771456"
           dy="0"
           dx="0"> </tspan></tspan></text>
    <text
       id="text4543"
       y="79.885277"
       x="129.38882"
       style="font-style:normal;font-variant:normal;font-weight:400;font-size:6.68479252px;line-height:125%;font-family:'Cambria Math';text-align:start;letter-spacing:0px;word-spacing:0px;text-anchor:start;display:inline;fill:#000000;fill-opacity:1;stroke:none;stroke-width:0.35771456"
       xml:space="preserve"><tspan
         id="tspan4541"
         y="79.885277"
         x="129.38882"
         sodipodi:role="line"
         style="stroke-width:0.35771456"><tspan
           id="tspan4529"
           style="font-style:normal;font-variant:normal;font-weight:400;font-size:6.68479252px;font-family:'Cambria Math';fill:#000000;stroke-width:0.35771456"
           dy="0 0"
           dx="3.1654525 0">$200</tspan><tspan
           id="tspan4539"
           style="font-style:normal;font-variant:normal;font-weight:400;font-size:6.68479252px;font-family:Arial;fill:#000000;stroke-width:0.35771456"
           dy="0"
           dx="0"> </tspan></tspan></text>
    <text
       id="text4575"
       y="125.1207"
       x="178.91052"
       style="font-style:normal;font-variant:normal;font-weight:400;font-size:6.68479252px;line-height:125%;font-family:'Cambria Math';text-align:start;letter-spacing:0px;word-spacing:0px;text-anchor:start;display:inline;fill:#000000;fill-opacity:1;stroke:none;stroke-width:0.35771456"
       xml:space="preserve"><tspan
         id="tspan4573"
         y="125.1207"
         x="178.91052"
         sodipodi:role="line"
         style="stroke-width:0.35771456"><tspan
           id="tspan4563"
           style="font-style:normal;font-variant:normal;font-weight:400;font-size:6.68479252px;font-family:'Cambria Math';fill:#000000;stroke-width:0.35771456"
           dy="0 0"
           dx="0 3.1654525">-$100</tspan><tspan
           id="tspan4571"
           style="font-style:normal;font-variant:normal;font-weight:400;font-size:6.68479252px;font-family:Arial;fill:#000000;stroke-width:0.35771456"
           dy="0"
           dx="0"> </tspan></tspan></text>
    <text
       id="text4606"
       y="133.56519"
       x="195.22348"
       style="font-style:normal;font-variant:normal;font-weight:400;font-size:6.68479252px;line-height:125%;font-family:'Cambria Math';text-align:start;letter-spacing:0px;word-spacing:0px;text-anchor:start;display:inline;fill:#000000;fill-opacity:1;stroke:none;stroke-width:0.35771456"
       xml:space="preserve"><tspan
         id="tspan4604"
         y="133.56519"
         x="195.22348"
         sodipodi:role="line"
         style="stroke-width:0.35771456"><tspan
           id="tspan4594"
           style="font-style:normal;font-variant:normal;font-weight:400;font-size:6.68479252px;font-family:'Cambria Math';fill:#000000;stroke-width:0.35771456"
           dy="0 0 0"
           dx="0 0 3.1654525"> -$200</tspan><tspan
           id="tspan4602"
           style="font-style:normal;font-variant:normal;font-weight:400;font-size:6.68479252px;font-family:Arial;fill:#000000;stroke-width:0.35771456"
           dy="0"
           dx="0"> </tspan></tspan></text>
    <text
       id="text6232"
       y="57.511215"
       x="79.577789"
       style="font-style:normal;font-variant:normal;font-weight:400;font-size:6.68479252px;line-height:125%;font-family:'Cambria Math';text-align:start;letter-spacing:0px;word-spacing:0px;text-anchor:start;display:inline;fill:#000000;fill-opacity:1;stroke:none;stroke-width:0.35771456"
       xml:space="preserve"><tspan
         id="tspan6230"
         y="57.511215"
         x="79.577789"
         sodipodi:role="line"
         style="stroke-width:0.35771456"><tspan
           id="tspan6220"
           style="font-style:normal;font-variant:normal;font-weight:400;font-size:6.68479252px;font-family:'Cambria Math';fill:#000000;stroke-width:0.35771456"
           dy="0"
           dx="0.12589836">  $500</tspan><tspan
           id="tspan6228"
           style="font-style:normal;font-variant:normal;font-weight:400;font-size:6.68479252px;font-family:Arial;fill:#000000;stroke-width:0.35771456"
           dy="0"
           dx="0"> </tspan></tspan></text>
    <g
       style="display:inline"
       id="g1368-14-4-0"
       transform="matrix(-1.3519755,-0.0054313,0.01164488,-1.8990203,253.38896,436.96666)">
      <path
         style="fill:none;stroke:#000000;stroke-width:0.565;stroke-linecap:butt;stroke-linejoin:miter;stroke-miterlimit:4;stroke-dasharray:none;stroke-opacity:1"
         d="m 100.09244,174.7242 0.26727,12.56166"
         id="path1329-81-2-8"
         inkscape:connector-curvature="0" />
      <text
         id="text1350-76-5-6"
         y="189.98271"
         x="98.743851"
         style="font-style:normal;font-variant:normal;font-weight:400;font-size:3.88606763px;line-height:125%;font-family:'Segoe UI Emoji';text-align:start;letter-spacing:0px;word-spacing:0px;text-anchor:start;fill:#000000;fill-opacity:1;stroke:none;stroke-width:0.26458332"
         xml:space="preserve"><tspan
           id="tspan1348-63-4-7"
           y="189.98271"
           x="98.743851"
           sodipodi:role="line"
           style="stroke-width:0.26458332"><tspan
             id="tspan1344-4-8-5"
             style="font-style:normal;font-variant:normal;font-weight:400;font-size:3.88606763px;font-family:'Segoe UI Emoji';fill:#000000;stroke-width:0.26458332"
             dy="0"
             dx="0">▼</tspan><tspan
             id="tspan1346-46-8-5"
             style="font-style:normal;font-variant:normal;font-weight:400;font-size:3.88606763px;font-family:Calibri;fill:#000000;stroke-width:0.26458332"
             dy="0"
             dx="0"> </tspan></tspan></text>
    </g>
    <g
       style="display:inline"
       id="g1368-14-4-09"
       transform="matrix(-1.3519755,-0.00207721,0.01164488,-0.72628123,289.73762,232.53294)">
      <path
         style="fill:none;stroke:#000000;stroke-width:0.565;stroke-linecap:butt;stroke-linejoin:miter;stroke-miterlimit:4;stroke-dasharray:none;stroke-opacity:1"
         d="m 100.09244,174.7242 0.26727,12.56166"
         id="path1329-81-2-3"
         inkscape:connector-curvature="0" />
      <text
         id="text1350-76-5-5"
         y="189.98271"
         x="98.743851"
         style="font-style:normal;font-variant:normal;font-weight:400;font-size:3.88606763px;line-height:125%;font-family:'Segoe UI Emoji';text-align:start;letter-spacing:0px;word-spacing:0px;text-anchor:start;fill:#000000;fill-opacity:1;stroke:none;stroke-width:0.26458332"
         xml:space="preserve"><tspan
           id="tspan1348-63-4-8"
           y="189.98271"
           x="98.743851"
           sodipodi:role="line"
           style="stroke-width:0.26458332"><tspan
             id="tspan1344-4-8-1"
             style="font-style:normal;font-variant:normal;font-weight:400;font-size:3.88606763px;font-family:'Segoe UI Emoji';fill:#000000;stroke-width:0.26458332"
             dy="0"
             dx="0">▼</tspan><tspan
             id="tspan1346-46-8-2"
             style="font-style:normal;font-variant:normal;font-weight:400;font-size:3.88606763px;font-family:Calibri;fill:#000000;stroke-width:0.26458332"
             dy="0"
             dx="0"> </tspan></tspan></text>
    </g>
    <g
       style="display:inline"
       id="g1368-14-3-9"
       transform="matrix(1.3518286,0.01807417,-0.02900218,1.2844713,61.826932,-131.09054)">
      <path
         style="fill:none;stroke:#000000;stroke-width:0.39902666;stroke-linecap:butt;stroke-linejoin:miter;stroke-miterlimit:4;stroke-dasharray:none;stroke-opacity:1"
         d="m 100.23091,181.17703 0.12868,6.10446"
         id="path1329-81-4-9"
         inkscape:connector-curvature="0" />
      <text
         id="text1350-76-4-0"
         y="189.98271"
         x="98.743851"
         style="font-style:normal;font-variant:normal;font-weight:400;font-size:3.88606763px;line-height:125%;font-family:'Segoe UI Emoji';text-align:start;letter-spacing:0px;word-spacing:0px;text-anchor:start;fill:#000000;fill-opacity:1;stroke:none;stroke-width:0.26458332"
         xml:space="preserve"><tspan
           id="tspan1348-63-6-7"
           y="189.98271"
           x="98.743851"
           sodipodi:role="line"
           style="stroke-width:0.26458332"><tspan
             id="tspan1344-4-1-2"
             style="font-style:normal;font-variant:normal;font-weight:400;font-size:3.88606763px;font-family:'Segoe UI Emoji';fill:#000000;stroke-width:0.26458332"
             dy="0"
             dx="0">▼</tspan><tspan
             id="tspan1346-46-6-4"
             style="font-style:normal;font-variant:normal;font-weight:400;font-size:3.88606763px;font-family:Calibri;fill:#000000;stroke-width:0.26458332"
             dy="0"
             dx="0"> </tspan></tspan></text>
    </g>
    <text
       transform="scale(0.96962495,1.0313266)"
       id="text1787-14-4"
       y="108.65908"
       x="177.12141"
       style="font-style:normal;font-weight:normal;font-size:6.2354331px;line-height:1.25;font-family:sans-serif;letter-spacing:0px;word-spacing:0px;display:inline;fill:#000000;fill-opacity:1;stroke:none;stroke-width:0.15588582"
       xml:space="preserve"><tspan
         style="stroke-width:0.15588582"
         y="108.65908"
         x="177.12141"
         id="tspan1785-3-5"
         sodipodi:role="line">6</tspan></text>
    <text
       transform="scale(0.96962495,1.0313266)"
       id="text1787-14-45"
       y="107.62247"
       x="201.10228"
       style="font-style:normal;font-weight:normal;font-size:6.2354331px;line-height:1.25;font-family:sans-serif;letter-spacing:0px;word-spacing:0px;display:inline;fill:#000000;fill-opacity:1;stroke:none;stroke-width:0.15588582"
       xml:space="preserve"><tspan
         style="stroke-width:0.15588582"
         y="107.62247"
         x="201.10228"
         id="tspan1785-3-3"
         sodipodi:role="line">7</tspan></text>
    <text
       xml:space="preserve"
       style="font-style:normal;font-weight:normal;font-size:10.58333302px;line-height:1.25;font-family:sans-serif;letter-spacing:0px;word-spacing:0px;fill:#000000;fill-opacity:1;stroke:none;stroke-width:0.26458332"
       x="256.31146"
       y="109.23939"
       id="text11929"><tspan
         sodipodi:role="line"
         id="tspan11927"
         x="256.31146"
         y="118.89488"
         style="stroke-width:0.26458332"></tspan></text>
    <text
       id="text4575-6"
       y="86.891365"
       x="145.9639"
       style="font-style:normal;font-variant:normal;font-weight:400;font-size:6.68479252px;line-height:125%;font-family:'Cambria Math';text-align:start;letter-spacing:0px;word-spacing:0px;text-anchor:start;display:inline;fill:#000000;fill-opacity:1;stroke:none;stroke-width:0.35771456"
       xml:space="preserve"><tspan
         id="tspan4573-4"
         y="86.891365"
         x="145.9639"
         sodipodi:role="line"
         style="stroke-width:0.35771456"><tspan
           id="tspan4563-8"
           style="font-style:normal;font-variant:normal;font-weight:400;font-size:6.68479252px;font-family:'Cambria Math';fill:#000000;stroke-width:0.35771456"
           dy="0"
           dx="3.1654525">$100</tspan><tspan
           id="tspan4571-7"
           style="font-style:normal;font-variant:normal;font-weight:400;font-size:6.68479252px;font-family:Arial;fill:#000000;stroke-width:0.35771456"
           dy="0"
           dx="0"> </tspan></tspan></text>
    <path
       style="fill:none;stroke:#000000;stroke-width:0.565;stroke-linecap:butt;stroke-linejoin:miter;stroke-miterlimit:4;stroke-dasharray:1.695, 1.695;stroke-dashoffset:0;stroke-opacity:1"
       d="m 208.7375,101.75584 c 0,-41.961309 0,-41.961309 0,-41.961309"
       id="path11955"
       inkscape:connector-curvature="0" />
    <text
       id="text4201-3"
       y="73.013123"
       x="210.96451"
       style="font-style:normal;font-variant:normal;font-weight:400;font-size:5.25393295px;line-height:125%;font-family:'Cambria Math';text-align:start;letter-spacing:0px;word-spacing:0px;text-anchor:start;display:inline;fill:#000000;fill-opacity:1;stroke:none;stroke-width:0.35771456"
       xml:space="preserve"><tspan
         id="tspan4199-6"
         y="73.013123"
         x="210.96451"
         sodipodi:role="line"
         style="font-size:8.58514977px;stroke-width:0.35771456">ff</tspan></text>
    <text
       id="text4201-8"
       y="88.24749"
       x="211.23178"
       style="font-style:normal;font-variant:normal;font-weight:400;font-size:5.25393295px;line-height:125%;font-family:'Cambria Math';text-align:start;letter-spacing:0px;word-spacing:0px;text-anchor:start;display:inline;fill:#000000;fill-opacity:1;stroke:none;stroke-width:0.35771456"
       xml:space="preserve"><tspan
         id="tspan4199-5"
         y="88.24749"
         x="211.23178"
         sodipodi:role="line"
         style="font-size:8.58514977px;stroke-width:0.35771456">VF=$¿?</tspan></text>
    <text
       id="text4201-83"
       y="138.2269"
       x="125.97279"
       style="font-style:normal;font-variant:normal;font-weight:400;font-size:5.25393295px;line-height:125%;font-family:'Cambria Math';text-align:start;letter-spacing:0px;word-spacing:0px;text-anchor:start;display:inline;fill:#000000;fill-opacity:1;stroke:none;stroke-width:0.35771456"
       xml:space="preserve"><tspan
         id="tspan4199-7"
         y="138.2269"
         x="125.97279"
         sodipodi:role="line"
         style="font-size:8.58514977px;stroke-width:0.35771456">i=15% pav</tspan></text>
  </g>
</svg>
